simulation/qsim/Projeto.msim.vcd
$comment
	File created using the following command:
		vcd file Projeto.msim.vcd -direction
$end
$date
	Thu Feb 25 21:37:25 2021
$end
$version
	ModelSim Version 10.5b
$end
$timescale
	1ps
$end

$scope module Entradas_vlg_vec_tst $end
$var reg 1 ! A $end
$var reg 1 " B $end
$var reg 1 # C $end
$var reg 1 $ D $end
$var reg 1 % E $end
$var reg 1 & F $end
$var wire 1 ' OUT $end

$scope module i1 $end
$var wire 1 ( gnd $end
$var wire 1 ) vcc $end
$var wire 1 * unknown $end
$var tri1 1 + devclrn $end
$var tri1 1 , devpor $end
$var tri1 1 - devoe $end
$var wire 1 . E~combout $end
$var wire 1 / F~combout $end
$var wire 1 0 B~combout $end
$var wire 1 1 D~combout $end
$var wire 1 2 A~combout $end
$var wire 1 3 C~combout $end
$var wire 1 4 inst~0_combout $end
$var wire 1 5 inst~combout $end
$upscope $end
$upscope $end
$enddefinitions $end
#0
$dumpvars
0!
0"
0#
0$
0%
0&
0'
0(
1)
x*
1+
1,
1-
0.
0/
00
01
02
03
04
05
$end
#30000
1"
1#
1$
1%
1&
10
13
11
1.
1/
#50000
0$
0%
01
0.
#60000
1!
12
#70000
1$
11
14
#90000
1%
1.
15
1'
#100000
0!
02
04
05
0'
#110000
0&
0$
0/
01
#120000
0"
00
#180000
0#
03
#190000
0%
1!
1&
0.
12
1/
#240000
1$
1#
1%
11
13
1.
#250000
0!
02
#280000
0&
0/
#310000
1"
0$
10
01
#320000
1!
12
#340000
0"
0!
00
02
#370000
1&
1/
#400000
1$
11
#450000
1"
1!
10
12
14
15
1'
#560000
0#
0%
0&
0$
0"
0!
03
0.
0/
01
00
02
04
05
0'
