simulation/qsim/Projeto.msim.vcd
$comment
	File created using the following command:
		vcd file Projeto.msim.vcd -direction
$end
$date
	Fri Mar 05 17:57:47 2021
$end
$version
	ModelSim Version 10.5b
$end
$timescale
	1ps
$end

$scope module Entradas_vlg_vec_tst $end
$var reg 1 ! IN_A $end
$var reg 1 " IN_B $end
$var reg 1 # IN_C $end
$var reg 1 $ IN_D $end
$var reg 1 % IN_E $end
$var wire 1 & LOTE_ACEITO $end
$var wire 1 ' LOTE_COMPROMETIDO $end
$var wire 1 ( LOTE_RECUSADO $end

$scope module i1 $end
$var wire 1 ) gnd $end
$var wire 1 * vcc $end
$var wire 1 + unknown $end
$var tri1 1 , devclrn $end
$var tri1 1 - devpor $end
$var tri1 1 . devoe $end
$var wire 1 / IN_C~combout $end
$var wire 1 0 IN_B~combout $end
$var wire 1 1 IN_A~combout $end
$var wire 1 2 inst3~0_combout $end
$var wire 1 3 IN_E~combout $end
$var wire 1 4 IN_D~combout $end
$var wire 1 5 inst28~0_combout $end
$var wire 1 6 inst28~1_combout $end
$var wire 1 7 inst3~combout $end
$var wire 1 8 inst38~combout $end
$upscope $end
$upscope $end
$enddefinitions $end
#0
$dumpvars
0!
0"
0#
0$
0%
0&
0'
1(
0)
1*
x+
1,
1-
1.
0/
00
01
02
03
04
05
06
07
08
$end
#10000
1!
11
#30000
1"
1$
1%
10
14
13
15
18
16
1'
0(
#50000
1#
1/
05
12
06
17
0'
1&
#70000
0%
03
07
16
0&
1'
#160000
1%
13
17
06
1&
0'
#190000
0!
01
15
02
16
07
1'
0&
#210000
0"
00
05
08
06
0'
1(
#220000
0%
03
#230000
0#
0/
#290000
0$
04
#390000
1!
1"
1%
1#
1$
11
10
13
1/
14
12
18
17
1&
0(
#500000
0!
01
15
02
16
07
1'
0&
#560000
0"
00
05
08
06
0'
1(
#650000
0#
0$
0/
04
#720000
0%
03
