simulation/qsim/Projeto.msim.vcd
$comment
	File created using the following command:
		vcd file Projeto.msim.vcd -direction
$end
$date
	Thu Mar 04 10:51:24 2021
$end
$version
	ModelSim Version 10.5b
$end
$timescale
	1ps
$end

$scope module Entradas_vlg_vec_tst $end
$var reg 1 ! IN_A $end
$var reg 1 " IN_B $end
$var reg 1 # IN_C $end
$var reg 1 $ IN_D $end
$var reg 1 % IN_E $end
$var reg 1 & IN_F $end
$var reg 1 ' IN_G $end
$var reg 1 ( IN_H $end
$var reg 1 ) IN_I $end
$var reg 1 * IN_J $end
$var wire 1 + LOTE_ACEITO $end
$var wire 1 , LOTE_COMPROMETIDO $end
$var wire 1 - LOTE_RECUSADO $end

$scope module i1 $end
$var wire 1 . gnd $end
$var wire 1 / vcc $end
$var wire 1 0 unknown $end
$var tri1 1 1 devclrn $end
$var tri1 1 2 devpor $end
$var tri1 1 3 devoe $end
$var wire 1 4 IN_G~combout $end
$var wire 1 5 IN_A~combout $end
$var wire 1 6 IN_I~combout $end
$var wire 1 7 IN_B~combout $end
$var wire 1 8 inst2~0_combout $end
$var wire 1 9 IN_F~combout $end
$var wire 1 : IN_C~combout $end
$var wire 1 ; inst2~1_combout $end
$var wire 1 < IN_D~combout $end
$var wire 1 = IN_J~combout $end
$var wire 1 > IN_H~combout $end
$var wire 1 ? IN_E~combout $end
$var wire 1 @ inst2~2_combout $end
$var wire 1 A inst29~2_combout $end
$var wire 1 B inst29~0_combout $end
$var wire 1 C inst29~1_combout $end
$var wire 1 D inst29~3_combout $end
$var wire 1 E inst2~combout $end
$var wire 1 F inst38~combout $end
$upscope $end
$upscope $end
$enddefinitions $end
#0
$dumpvars
0!
0"
0#
0$
0%
0&
0'
0(
0)
0*
0+
0,
1-
0.
1/
x0
11
12
13
04
05
06
07
08
09
0:
0;
0<
0=
0>
0?
0@
0A
0B
0C
0D
0E
0F
$end
#10000
1!
1(
15
1>
#20000
1&
19
#30000
1"
1$
1%
1'
1)
17
1<
1?
14
16
18
1A
1C
#50000
1#
1:
0C
1;
1F
1D
1,
0-
#70000
0&
0%
09
0?
1C
0;
0A
0F
0D
0,
1-
#100000
0'
04
1B
08
0C
#110000
1*
1=
1A
#130000
0(
0)
0>
06
0A
0B
#160000
1&
1%
1'
1(
19
1?
14
1>
1@
1B
1C
1F
1D
1,
0-
#190000
0!
05
0B
0C
0F
0D
0,
1-
#200000
0*
0=
1A
0@
#210000
0"
07
#220000
0&
0%
09
0?
0A
#230000
0#
0:
#250000
0'
0(
04
0>
#290000
0$
0<
#390000
1)
1!
1*
1"
1&
1%
1#
1'
1(
1$
16
15
1=
17
19
1?
1:
14
1>
1<
18
1@
1E
1;
1F
1+
0-
#500000
0!
05
1B
08
1C
0E
0;
1D
0+
1,
#560000
0"
07
0B
0C
0F
0D
0,
1-
#650000
0#
0$
0:
0<
1A
0@
#720000
0)
0*
0&
0%
0'
0(
06
0=
09
0?
04
0>
0A
